[
  {
    "key": "whitelisted_file",
    "value": ".pdf,.xlsx,.docx,.png,.jpg,.jpeg",
    "helper": "Tambahkan simbol '.' diawal tipe file dan pisahkan menggunakan simbol ','. Contoh: '.png,.pdf,.jpeg'"
  },
  {
    "key": "file_max_size",
    "value": "3",
    "helper": "Masukkan angka dalam satuan MB"
  }
]
